0x01, 0x11, 0x06, 0xec, 0x22, 0xe8, 0x26, 0xe4, 0x00, 0x10, 0x81, 0x44, 0x01, 0x46, 0x85, 0x45, 
0x09, 0x45, 0x97, 0x00, 0x00, 0x00, 0xe7, 0x80, 0xa0, 0x3d, 0x01, 0x45, 0x97, 0x00, 0x00, 0x00, 
0xe7, 0x80, 0x40, 0x39, 0x01, 0x45, 0x97, 0x00, 0x00, 0x00, 0xe7, 0x80, 0xa0, 0x38, 0x97, 0x15, 
0x00, 0x00, 0x93, 0x85, 0xa5, 0xa0, 0x17, 0x15, 0x00, 0x00, 0x13, 0x05, 0xa5, 0x89, 0x97, 0x00, 
0x00, 0x00, 0xe7, 0x80, 0x00, 0x34, 0x01, 0x45, 0x97, 0x00, 0x00, 0x00, 0xe7, 0x80, 0xa0, 0x2f, 
0xe3, 0x0b, 0x95, 0xfe, 0xe3, 0x59, 0x05, 0xfe, 0x05, 0x45, 0x97, 0x00, 0x00, 0x00, 0xe7, 0x80, 
0xe0, 0x2d, 0x41, 0x11, 0x22, 0xe4, 0x00, 0x08, 0xaa, 0x87, 0x85, 0x05, 0x85, 0x07, 0x03, 0xc7, 
0xf5, 0xff, 0xa3, 0x8f, 0xe7, 0xfe, 0x75, 0xfb, 0x22, 0x64, 0x41, 0x01, 0x82, 0x80, 0x41, 0x11, 
0x22, 0xe4, 0x00, 0x08, 0x83, 0x47, 0x05, 0x00, 0x85, 0xc3, 0xaa, 0x87, 0x85, 0x07, 0x03, 0xc7, 
0x07, 0x00, 0x6d, 0xff, 0x85, 0x05, 0x85, 0x07, 0x03, 0xc7, 0xf5, 0xff, 0xa3, 0x8f, 0xe7, 0xfe, 
0x75, 0xfb, 0x22, 0x64, 0x41, 0x01, 0x82, 0x80, 0xaa, 0x87, 0xed, 0xb7, 0x41, 0x11, 0x22, 0xe4, 
0x00, 0x08, 0x83, 0x47, 0x05, 0x00, 0x91, 0xcf, 0x03, 0xc7, 0x05, 0x00, 0x63, 0x1b, 0xf7, 0x00, 
0x05, 0x05, 0x85, 0x05, 0x83, 0x47, 0x05, 0x00, 0x89, 0xc7, 0x03, 0xc7, 0x05, 0x00, 0xe3, 0x09, 
0xf7, 0xfe, 0x03, 0xc5, 0x05, 0x00, 0x3b, 0x85, 0xa7, 0x40, 0x22, 0x64, 0x41, 0x01, 0x82, 0x80, 
0x41, 0x11, 0x22, 0xe4, 0x00, 0x08, 0x83, 0x47, 0x05, 0x00, 0x91, 0xcf, 0x05, 0x05, 0xaa, 0x87, 
0x85, 0x46, 0x89, 0x9e, 0x3b, 0x85, 0xf6, 0x00, 0x85, 0x07, 0x03, 0xc7, 0xf7, 0xff, 0x7d, 0xfb, 
0x22, 0x64, 0x41, 0x01, 0x82, 0x80, 0x01, 0x45, 0xe5, 0xbf, 0x41, 0x11, 0x22, 0xe4, 0x00, 0x08, 
0x09, 0xce, 0xaa, 0x87, 0x1b, 0x07, 0xf6, 0xff, 0x02, 0x17, 0x01, 0x93, 0x05, 0x07, 0x2a, 0x97, 
0x23, 0x80, 0xb7, 0x00, 0x85, 0x07, 0xe3, 0x9d, 0xe7, 0xfe, 0x22, 0x64, 0x41, 0x01, 0x82, 0x80, 
0x41, 0x11, 0x22, 0xe4, 0x00, 0x08, 0x83, 0x47, 0x05, 0x00, 0x91, 0xcf, 0x63, 0x8a, 0xf5, 0x00, 
0x05, 0x05, 0x83, 0x47, 0x05, 0x00, 0x81, 0xc7, 0xe3, 0x9c, 0xb7, 0xfe, 0x11, 0xa0, 0x01, 0x45, 
0x22, 0x64, 0x41, 0x01, 0x82, 0x80, 0x01, 0x45, 0xe5, 0xbf, 0x1d, 0x71, 0x86, 0xec, 0xa2, 0xe8, 
0xa6, 0xe4, 0xca, 0xe0, 0x4e, 0xfc, 0x52, 0xf8, 0x56, 0xf4, 0x5a, 0xf0, 0x5e, 0xec, 0x80, 0x10, 
0xaa, 0x8b, 0x2e, 0x8a, 0x2a, 0x89, 0x81, 0x49, 0xa9, 0x4a, 0x35, 0x4b, 0x9b, 0x84, 0x19, 0x00, 
0x63, 0xd8, 0x44, 0x03, 0x05, 0x46, 0x93, 0x05, 0xf4, 0xfa, 0x01, 0x45, 0x97, 0x00, 0x00, 0x00, 
0xe7, 0x80, 0xa0, 0x1c, 0x63, 0x5e, 0xa0, 0x00, 0x83, 0x47, 0xf4, 0xfa, 0x23, 0x00, 0xf9, 0x00, 
0x63, 0x87, 0x57, 0x01, 0x05, 0x09, 0xa6, 0x89, 0xe3, 0x9a, 0x67, 0xfd, 0x11, 0xa0, 0xa6, 0x89, 
0xde, 0x99, 0x23, 0x80, 0x09, 0x00, 0x5e, 0x85, 0xe6, 0x60, 0x46, 0x64, 0xa6, 0x64, 0x06, 0x69, 
0xe2, 0x79, 0x42, 0x7a, 0xa2, 0x7a, 0x02, 0x7b, 0xe2, 0x6b, 0x25, 0x61, 0x82, 0x80, 0x01, 0x11, 
0x06, 0xec, 0x22, 0xe8, 0x26, 0xe4, 0x4a, 0xe0, 0x00, 0x10, 0x2e, 0x89, 0x81, 0x45, 0x97, 0x00, 
0x00, 0x00, 0xe7, 0x80, 0xa0, 0x1a, 0x63, 0x45, 0x05, 0x02, 0xaa, 0x84, 0xca, 0x85, 0x97, 0x00, 
0x00, 0x00, 0xe7, 0x80, 0x40, 0x1a, 0x2a, 0x89, 0x26, 0x85, 0x97, 0x00, 0x00, 0x00, 0xe7, 0x80, 
0x00, 0x17, 0x4a, 0x85, 0xe2, 0x60, 0x42, 0x64, 0xa2, 0x64, 0x02, 0x69, 0x05, 0x61, 0x82, 0x80, 
0x7d, 0x59, 0xc5, 0xbf, 0x41, 0x11, 0x22, 0xe4, 0x00, 0x08, 0x03, 0x47, 0x05, 0x00, 0x93, 0x07, 
0xd0, 0x02, 0x05, 0x48, 0x63, 0x03, 0xf7, 0x04, 0x83, 0x46, 0x05, 0x00, 0x9b, 0x87, 0x06, 0xfd, 
0x93, 0xf7, 0xf7, 0x0f, 0x25, 0x47, 0x63, 0x6d, 0xf7, 0x02, 0x01, 0x46, 0xa5, 0x45, 0x05, 0x05, 
0x9b, 0x17, 0x26, 0x00, 0xb1, 0x9f, 0x9b, 0x97, 0x17, 0x00, 0xb5, 0x9f, 0x1b, 0x86, 0x07, 0xfd, 
0x83, 0x46, 0x05, 0x00, 0x1b, 0x87, 0x06, 0xfd, 0x13, 0x77, 0xf7, 0x0f, 0xe3, 0xf1, 0xe5, 0xfe, 
0x3b, 0x05, 0xc8, 0x02, 0x22, 0x64, 0x41, 0x01, 0x82, 0x80, 0x05, 0x05, 0x7d, 0x58, 0x6d, 0xbf, 
0x01, 0x46, 0xfd, 0xb7, 0x41, 0x11, 0x22, 0xe4, 0x00, 0x08, 0x63, 0x76, 0xb5, 0x02, 0x63, 0x51, 
0xc0, 0x02, 0x9b, 0x07, 0xf6, 0xff, 0x82, 0x17, 0x81, 0x93, 0x85, 0x07, 0xaa, 0x97, 0x2a, 0x87, 
0x85, 0x05, 0x05, 0x07, 0x83, 0xc6, 0xf5, 0xff, 0xa3, 0x0f, 0xd7, 0xfe, 0xe3, 0x9a, 0xe7, 0xfe, 
0x22, 0x64, 0x41, 0x01, 0x82, 0x80, 0x33, 0x07, 0xc5, 0x00, 0xb2, 0x95, 0xe3, 0x5a, 0xc0, 0xfe, 
0x9b, 0x07, 0xf6, 0xff, 0x82, 0x17, 0x81, 0x93, 0x93, 0xc7, 0xf7, 0xff, 0xba, 0x97, 0xfd, 0x15, 
0x7d, 0x17, 0x83, 0xc6, 0x05, 0x00, 0x23, 0x00, 0xd7, 0x00, 0xe3, 0x1a, 0xf7, 0xfe, 0xc9, 0xbf, 
0x41, 0x11, 0x22, 0xe4, 0x00, 0x08, 0x15, 0xce, 0x9b, 0x06, 0xf6, 0xff, 0x83, 0x47, 0x05, 0x00, 
0x03, 0xc7, 0x05, 0x00, 0x63, 0x90, 0xe7, 0x02, 0x82, 0x16, 0x81, 0x92, 0x85, 0x06, 0xaa, 0x96, 
0x05, 0x05, 0x85, 0x05, 0x63, 0x0d, 0xd5, 0x00, 0x83, 0x47, 0x05, 0x00, 0x03, 0xc7, 0x05, 0x00, 
0xe3, 0x88, 0xe7, 0xfe, 0x3b, 0x85, 0xe7, 0x40, 0x22, 0x64, 0x41, 0x01, 0x82, 0x80, 0x01, 0x45, 
0xe5, 0xbf, 0x01, 0x45, 0xd5, 0xbf, 0x41, 0x11, 0x06, 0xe4, 0x22, 0xe0, 0x00, 0x08, 0x97, 0x00, 
0x00, 0x00, 0xe7, 0x80, 0x60, 0xf5, 0xa2, 0x60, 0x02, 0x64, 0x41, 0x01, 0x82, 0x80, 0x93, 0x08, 
0x90, 0x3e, 0x73, 0x00, 0x00, 0x00, 0x82, 0x80, 0x93, 0x08, 0xa0, 0x3e, 0x73, 0x00, 0x00, 0x00, 
0x82, 0x80, 0x93, 0x08, 0xb0, 0x3e, 0x73, 0x00, 0x00, 0x00, 0x82, 0x80, 0x93, 0x08, 0xc0, 0x3e, 
0x73, 0x00, 0x00, 0x00, 0x82, 0x80, 0x93, 0x08, 0xd0, 0x3e, 0x73, 0x00, 0x00, 0x00, 0x82, 0x80, 
0x93, 0x08, 0x80, 0x3f, 0x73, 0x00, 0x00, 0x00, 0x82, 0x80, 0x93, 0x08, 0xd0, 0x3f, 0x73, 0x00, 
0x00, 0x00, 0x82, 0x80, 0x93, 0x08, 0xe0, 0x3e, 0x73, 0x00, 0x00, 0x00, 0x82, 0x80, 0x93, 0x08, 
0xf0, 0x3e, 0x73, 0x00, 0x00, 0x00, 0x82, 0x80, 0x93, 0x08, 0x70, 0x3f, 0x73, 0x00, 0x00, 0x00, 
0x82, 0x80, 0x93, 0x08, 0x00, 0x3f, 0x73, 0x00, 0x00, 0x00, 0x82, 0x80, 0x93, 0x08, 0xc0, 0x3f, 
0x73, 0x00, 0x00, 0x00, 0x82, 0x80, 0x93, 0x08, 0x10, 0x3f, 0x73, 0x00, 0x00, 0x00, 0x82, 0x80, 
0x93, 0x08, 0x20, 0x3f, 0x73, 0x00, 0x00, 0x00, 0x82, 0x80, 0x93, 0x08, 0x30, 0x3f, 0x73, 0x00, 
0x00, 0x00, 0x82, 0x80, 0x93, 0x08, 0x40, 0x3f, 0x73, 0x00, 0x00, 0x00, 0x82, 0x80, 0x93, 0x08, 
0x50, 0x3f, 0x73, 0x00, 0x00, 0x00, 0x82, 0x80, 0x93, 0x08, 0x60, 0x3f, 0x73, 0x00, 0x00, 0x00, 
0x82, 0x80, 0x93, 0x08, 0xe0, 0x3f, 0x73, 0x00, 0x00, 0x00, 0x82, 0x80, 0x93, 0x08, 0xf0, 0x3f, 
0x73, 0x00, 0x00, 0x00, 0x82, 0x80, 0x93, 0x08, 0x00, 0x40, 0x73, 0x00, 0x00, 0x00, 0x82, 0x80, 
0x93, 0x08, 0x10, 0x40, 0x73, 0x00, 0x00, 0x00, 0x82, 0x80, 0x93, 0x08, 0x90, 0x3f, 0x73, 0x00, 
0x00, 0x00, 0x82, 0x80, 0x93, 0x08, 0xa0, 0x3f, 0x73, 0x00, 0x00, 0x00, 0x82, 0x80, 0x93, 0x08, 
0xb0, 0x3f, 0x73, 0x00, 0x00, 0x00, 0x82, 0x80, 0x93, 0x08, 0x10, 0x7d, 0x73, 0x00, 0x00, 0x00, 
0x82, 0x80, 0x93, 0x08, 0x40, 0x7d, 0x73, 0x00, 0x00, 0x00, 0x82, 0x80, 0x93, 0x08, 0x30, 0x7d, 
0x73, 0x00, 0x00, 0x00, 0x82, 0x80, 0x93, 0x08, 0x70, 0x7d, 0x73, 0x00, 0x00, 0x00, 0x82, 0x80, 
0x01, 0x11, 0x06, 0xec, 0x22, 0xe8, 0x00, 0x10, 0xa3, 0x07, 0xb4, 0xfe, 0x05, 0x46, 0x93, 0x05, 
0xf4, 0xfe, 0x97, 0x00, 0x00, 0x00, 0xe7, 0x80, 0xe0, 0xef, 0xe2, 0x60, 0x42, 0x64, 0x05, 0x61, 
0x82, 0x80, 0x39, 0x71, 0x06, 0xfc, 0x22, 0xf8, 0x26, 0xf4, 0x4a, 0xf0, 0x4e, 0xec, 0x80, 0x00, 
0x99, 0xc2, 0x63, 0xcd, 0x05, 0x00, 0x81, 0x25, 0x01, 0x43, 0x13, 0x07, 0x04, 0xfc, 0x01, 0x48, 
0x01, 0x26, 0x97, 0x08, 0x00, 0x00, 0x93, 0x88, 0x68, 0x58, 0x01, 0xa8, 0xbb, 0x05, 0xb0, 0x40, 
0x81, 0x25, 0x05, 0x43, 0xdd, 0xb7, 0xbe, 0x85, 0x36, 0x88, 0x9b, 0x06, 0x18, 0x00, 0xbb, 0xf7, 
0xc5, 0x02, 0x82, 0x17, 0x81, 0x93, 0xc6, 0x97, 0x83, 0xc7, 0x07, 0x00, 0x23, 0x00, 0xf7, 0x00, 
0x05, 0x07, 0xbb, 0xd7, 0xc5, 0x02, 0xe3, 0xf0, 0xc5, 0xfe, 0x63, 0x0b, 0x03, 0x00, 0x93, 0x07, 
0x04, 0xfd, 0xbe, 0x96, 0x93, 0x07, 0xd0, 0x02, 0x23, 0x88, 0xf6, 0xfe, 0x9b, 0x06, 0x28, 0x00, 
0x63, 0x59, 0xd0, 0x02, 0xaa, 0x89, 0x93, 0x07, 0x04, 0xfc, 0xb3, 0x84, 0xd7, 0x00, 0x13, 0x89, 
0xf7, 0xff, 0x36, 0x99, 0xfd, 0x36, 0x82, 0x16, 0x81, 0x92, 0x33, 0x09, 0xd9, 0x40, 0x83, 0xc5, 
0xf4, 0xff, 0x4e, 0x85, 0x97, 0x00, 0x00, 0x00, 0xe7, 0x80, 0xc0, 0xf4, 0xfd, 0x14, 0xe3, 0x98, 
0x24, 0xff, 0xe2, 0x70, 0x42, 0x74, 0xa2, 0x74, 0x02, 0x79, 0xe2, 0x69, 0x21, 0x61, 0x82, 0x80, 
0x19, 0x71, 0x86, 0xfc, 0xa2, 0xf8, 0xa6, 0xf4, 0xca, 0xf0, 0xce, 0xec, 0xd2, 0xe8, 0xd6, 0xe4, 
0xda, 0xe0, 0x5e, 0xfc, 0x62, 0xf8, 0x66, 0xf4, 0x6a, 0xf0, 0x6e, 0xec, 0x00, 0x01, 0x83, 0xc4, 
0x05, 0x00, 0x63, 0x8d, 0x04, 0x18, 0xaa, 0x8a, 0x32, 0x8b, 0x13, 0x89, 0x15, 0x00, 0x81, 0x49, 
0x13, 0x0a, 0x50, 0x02, 0x13, 0x0c, 0x40, 0x06, 0x93, 0x0c, 0xc0, 0x06, 0x13, 0x0d, 0x80, 0x07, 
0x93, 0x0d, 0x00, 0x07, 0x97, 0x0b, 0x00, 0x00, 0x93, 0x8b, 0x4b, 0x4b, 0x39, 0xa8, 0xa6, 0x85, 
0x56, 0x85, 0x97, 0x00, 0x00, 0x00, 0xe7, 0x80, 0xe0, 0xed, 0x19, 0xa0, 0x63, 0x8f, 0x49, 0x01, 
0x05, 0x09, 0x83, 0x44, 0xf9, 0xff, 0x63, 0x8b, 0x04, 0x14, 0x9b, 0x87, 0x04, 0x00, 0xe3, 0x97, 
0x09, 0xfe, 0xe3, 0x9e, 0x47, 0xfd, 0xbe, 0x89, 0xe5, 0xb7, 0x63, 0x80, 0x87, 0x05, 0x63, 0x8c, 
0x97, 0x05, 0x63, 0x88, 0xa7, 0x07, 0x63, 0x84, 0xb7, 0x09, 0x13, 0x07, 0x30, 0x07, 0x63, 0x85, 
0xe7, 0x0c, 0x13, 0x07, 0x30, 0x06, 0x63, 0x8c, 0xe7, 0x0e, 0x63, 0x86, 0x47, 0x11, 0xd2, 0x85, 
0x56, 0x85, 0x97, 0x00, 0x00, 0x00, 0xe7, 0x80, 0xe0, 0xe8, 0xa6, 0x85, 0x56, 0x85, 0x97, 0x00, 
0x00, 0x00, 0xe7, 0x80, 0x20, 0xe8, 0x81, 0x49, 0x65, 0xb7, 0x93, 0x04, 0x8b, 0x00, 0x85, 0x46, 
0x29, 0x46, 0x83, 0x25, 0x0b, 0x00, 0x56, 0x85, 0x97, 0x00, 0x00, 0x00, 0xe7, 0x80, 0xa0, 0xe8, 
0x26, 0x8b, 0x81, 0x49, 0x71, 0xb7, 0x93, 0x04, 0x8b, 0x00, 0x81, 0x46, 0x29, 0x46, 0x83, 0x25, 
0x0b, 0x00, 0x56, 0x85, 0x97, 0x00, 0x00, 0x00, 0xe7, 0x80, 0xe0, 0xe6, 0x26, 0x8b, 0x81, 0x49, 
0x85, 0xbf, 0x93, 0x04, 0x8b, 0x00, 0x81, 0x46, 0x41, 0x46, 0x83, 0x25, 0x0b, 0x00, 0x56, 0x85, 
0x97, 0x00, 0x00, 0x00, 0xe7, 0x80, 0x20, 0xe5, 0x26, 0x8b, 0x81, 0x49, 0x91, 0xbf, 0x93, 0x07, 
0x8b, 0x00, 0x23, 0x34, 0xf4, 0xf8, 0x83, 0x39, 0x0b, 0x00, 0x93, 0x05, 0x00, 0x03, 0x56, 0x85, 
0x97, 0x00, 0x00, 0x00, 0xe7, 0x80, 0x00, 0xe1, 0xea, 0x85, 0x56, 0x85, 0x97, 0x00, 0x00, 0x00, 
0xe7, 0x80, 0x40, 0xe0, 0xc1, 0x44, 0x93, 0xd7, 0xc9, 0x03, 0xde, 0x97, 0x83, 0xc5, 0x07, 0x00, 
0x56, 0x85, 0x97, 0x00, 0x00, 0x00, 0xe7, 0x80, 0xe0, 0xde, 0x92, 0x09, 0xfd, 0x34, 0xe5, 0xf4, 
0x03, 0x3b, 0x84, 0xf8, 0x81, 0x49, 0x29, 0xb7, 0x93, 0x09, 0x8b, 0x00, 0x83, 0x34, 0x0b, 0x00, 
0x85, 0xc0, 0x83, 0xc5, 0x04, 0x00, 0xa1, 0xc9, 0x56, 0x85, 0x97, 0x00, 0x00, 0x00, 0xe7, 0x80, 
0x60, 0xdc, 0x85, 0x04, 0x83, 0xc5, 0x04, 0x00, 0xe5, 0xf9, 0x4e, 0x8b, 0x81, 0x49, 0xcd, 0xb5, 
0x97, 0x04, 0x00, 0x00, 0x93, 0x84, 0x04, 0x39, 0x93, 0x05, 0x80, 0x02, 0xf1, 0xbf, 0x93, 0x04, 
0x8b, 0x00, 0x83, 0x45, 0x0b, 0x00, 0x56, 0x85, 0x97, 0x00, 0x00, 0x00, 0xe7, 0x80, 0x80, 0xd9, 
0x26, 0x8b, 0x81, 0x49, 0x75, 0xbd, 0xd2, 0x85, 0x56, 0x85, 0x97, 0x00, 0x00, 0x00, 0xe7, 0x80, 
0x60, 0xd8, 0x81, 0x49, 0x75, 0xb5, 0x4e, 0x8b, 0x81, 0x49, 0x5d, 0xb5, 0xe6, 0x70, 0x46, 0x74, 
0xa6, 0x74, 0x06, 0x79, 0xe6, 0x69, 0x46, 0x6a, 0xa6, 0x6a, 0x06, 0x6b, 0xe2, 0x7b, 0x42, 0x7c, 
0xa2, 0x7c, 0x02, 0x7d, 0xe2, 0x6d, 0x09, 0x61, 0x82, 0x80, 0x5d, 0x71, 0x06, 0xec, 0x22, 0xe8, 
0x00, 0x10, 0x10, 0xe0, 0x14, 0xe4, 0x18, 0xe8, 0x1c, 0xec, 0x23, 0x30, 0x04, 0x03, 0x23, 0x34, 
0x14, 0x03, 0x23, 0x34, 0x84, 0xfe, 0x22, 0x86, 0x97, 0x00, 0x00, 0x00, 0xe7, 0x80, 0x80, 0xe0, 
0xe2, 0x60, 0x42, 0x64, 0x61, 0x61, 0x82, 0x80, 0x1d, 0x71, 0x06, 0xec, 0x22, 0xe8, 0x00, 0x10, 
0x0c, 0xe4, 0x10, 0xe8, 0x14, 0xec, 0x18, 0xf0, 0x1c, 0xf4, 0x23, 0x38, 0x04, 0x03, 0x23, 0x3c, 
0x14, 0x03, 0x13, 0x06, 0x84, 0x00, 0x23, 0x34, 0xc4, 0xfe, 0xaa, 0x85, 0x05, 0x45, 0x97, 0x00, 
0x00, 0x00, 0xe7, 0x80, 0x20, 0xdd, 0xe2, 0x60, 0x42, 0x64, 0x25, 0x61, 0x82, 0x80, 0x41, 0x11, 
0x22, 0xe4, 0x00, 0x08, 0x93, 0x06, 0x05, 0xff, 0x97, 0x07, 0x00, 0x00, 0x93, 0x87, 0x87, 0x3f, 
0x9c, 0x63, 0x05, 0xa8, 0x18, 0x46, 0xb9, 0x9d, 0x23, 0x2c, 0xb5, 0xfe, 0x98, 0x63, 0x18, 0x63, 
0x23, 0x38, 0xe5, 0xfe, 0x91, 0xa0, 0x03, 0x27, 0x85, 0xff, 0x39, 0x9e, 0x90, 0xc7, 0x03, 0x37, 
0x05, 0xff, 0x98, 0xe3, 0x99, 0xa0, 0x98, 0x63, 0x63, 0xe4, 0xe7, 0x00, 0x63, 0xea, 0xe6, 0x00, 
0xba, 0x87, 0xe3, 0xfa, 0xd7, 0xfe, 0x98, 0x63, 0x63, 0xe4, 0xe6, 0x00, 0xe3, 0xea, 0xe7, 0xfe, 
0x83, 0x25, 0x85, 0xff, 0x90, 0x63, 0x13, 0x97, 0x05, 0x02, 0x01, 0x93, 0x12, 0x07, 0x36, 0x97, 
0xe3, 0x0a, 0xe6, 0xfa, 0x23, 0x38, 0xc5, 0xfe, 0x90, 0x47, 0x13, 0x17, 0x06, 0x02, 0x01, 0x93, 
0x12, 0x07, 0x3e, 0x97, 0xe3, 0x89, 0xe6, 0xfa, 0x94, 0xe3, 0x17, 0x07, 0x00, 0x00, 0x23, 0x33, 
0xf7, 0x38, 0x22, 0x64, 0x41, 0x01, 0x82, 0x80, 0x39, 0x71, 0x06, 0xfc, 0x22, 0xf8, 0x26, 0xf4, 
0x4a, 0xf0, 0x4e, 0xec, 0x52, 0xe8, 0x56, 0xe4, 0x5a, 0xe0, 0x80, 0x00, 0x93, 0x19, 0x05, 0x02, 
0x93, 0xd9, 0x09, 0x02, 0xbd, 0x09, 0x93, 0xd9, 0x49, 0x00, 0x85, 0x29, 0x1b, 0x89, 0x09, 0x00, 
0x97, 0x07, 0x00, 0x00, 0x93, 0x87, 0x07, 0x35, 0x9c, 0x63, 0x95, 0xc7, 0x88, 0x63, 0x18, 0x45, 
0x63, 0x7f, 0x27, 0x03, 0x4e, 0x8a, 0x9b, 0x87, 0x09, 0x00, 0x05, 0x67, 0x63, 0xf3, 0xe7, 0x00, 
0x05, 0x6a, 0x9b, 0x0a, 0x0a, 0x00, 0x1b, 0x1a, 0x4a, 0x00, 0x97, 0x04, 0x00, 0x00, 0x93, 0x84, 
0x64, 0x32, 0x7d, 0x5b, 0xbd, 0xa0, 0x17, 0x05, 0x00, 0x00, 0x13, 0x05, 0x25, 0x32, 0x97, 0x07, 
0x00, 0x00, 0x23, 0xb9, 0xa7, 0x30, 0x08, 0xe1, 0x23, 0x24, 0x05, 0x00, 0xe1, 0xb7, 0x63, 0x0a, 
0xe9, 0x02, 0x3b, 0x07, 0x37, 0x41, 0x18, 0xc5, 0x02, 0x17, 0x01, 0x93, 0x12, 0x07, 0x3a, 0x95, 
0x23, 0x24, 0x35, 0x01, 0x17, 0x07, 0x00, 0x00, 0x23, 0x36, 0xf7, 0x2e, 0x41, 0x05, 0xe2, 0x70, 
0x42, 0x74, 0xa2, 0x74, 0x02, 0x79, 0xe2, 0x69, 0x42, 0x6a, 0xa2, 0x6a, 0x02, 0x6b, 0x21, 0x61, 
0x82, 0x80, 0x18, 0x61, 0x98, 0xe3, 0xf9, 0xbf, 0x23, 0x24, 0x55, 0x01, 0x41, 0x05, 0x97, 0x00, 
0x00, 0x00, 0xe7, 0x80, 0x00, 0xec, 0x9c, 0x60, 0x95, 0xc3, 0x88, 0x63, 0x18, 0x45, 0xe3, 0x78, 
0x27, 0xfb, 0x98, 0x60, 0xaa, 0x87, 0xe3, 0x1a, 0xa7, 0xfe, 0x52, 0x85, 0x97, 0x00, 0x00, 0x00, 
0xe7, 0x80, 0x80, 0xb0, 0xe3, 0x1a, 0x65, 0xfd, 0x01, 0x45, 0x55, 0xbf, 0x01, 0x45, 0x45, 0xbf, 
0x72, 0x75, 0x6e, 0x2d, 0x61, 0x6c, 0x6c, 0x2e, 0x73, 0x68, 0x00, 0x00, 0x00, 0x00, 0x00, 0x00, 
0x62, 0x72, 0x6b, 0x00, 0x00, 0x00, 0x00, 0x00, 0x63, 0x68, 0x64, 0x69, 0x72, 0x00, 0x00, 0x00, 
0x63, 0x6c, 0x6f, 0x6e, 0x65, 0x00, 0x00, 0x00, 0x63, 0x6c, 0x6f, 0x73, 0x65, 0x00, 0x00, 0x00, 
0x64, 0x75, 0x70, 0x00, 0x00, 0x00, 0x00, 0x00, 0x64, 0x75, 0x70, 0x32, 0x00, 0x00, 0x00, 0x00, 
0x65, 0x78, 0x65, 0x63, 0x76, 0x65, 0x00, 0x00, 0x65, 0x78, 0x69, 0x74, 0x00, 0x00, 0x00, 0x00, 
0x66, 0x6f, 0x72, 0x6b, 0x00, 0x00, 0x00, 0x00, 0x66, 0x73, 0x74, 0x61, 0x74, 0x00, 0x00, 0x00, 
0x67, 0x65, 0x74, 0x63, 0x77, 0x64, 0x00, 0x00, 0x67, 0x65, 0x74, 0x64, 0x65, 0x6e, 0x74, 0x73, 
0x00, 0x00, 0x00, 0x00, 0x00, 0x00, 0x00, 0x00, 0x67, 0x65, 0x74, 0x70, 0x69, 0x64, 0x00, 0x00, 
0x67, 0x65, 0x74, 0x70, 0x70, 0x69, 0x64, 0x00, 0x67, 0x65, 0x74, 0x74, 0x69, 0x6d, 0x65, 0x6f, 
0x66, 0x64, 0x61, 0x79, 0x00, 0x00, 0x00, 0x00, 0x6d, 0x6b, 0x64, 0x69, 0x72, 0x5f, 0x00, 0x00, 
0x6d, 0x6d, 0x61, 0x70, 0x00, 0x00, 0x00, 0x00, 0x6d, 0x6f, 0x75, 0x6e, 0x74, 0x00, 0x00, 0x00, 
0x6d, 0x75, 0x6e, 0x6d, 0x61, 0x70, 0x00, 0x00, 0x6f, 0x70, 0x65, 0x6e, 0x00, 0x00, 0x00, 0x00, 
0x6f, 0x70, 0x65, 0x6e, 0x61, 0x74, 0x00, 0x00, 0x70, 0x69, 0x70, 0x65, 0x00, 0x00, 0x00, 0x00, 
0x72, 0x65, 0x61, 0x64, 0x00, 0x00, 0x00, 0x00, 0x73, 0x6c, 0x65, 0x65, 0x70, 0x00, 0x00, 0x00, 
0x74, 0x69, 0x6d, 0x65, 0x73, 0x00, 0x00, 0x00, 0x75, 0x6d, 0x6f, 0x75, 0x6e, 0x74, 0x00, 0x00, 
0x75, 0x6e, 0x61, 0x6d, 0x65, 0x00, 0x00, 0x00, 0x75, 0x6e, 0x6c, 0x69, 0x6e, 0x6b, 0x00, 0x00, 
0x77, 0x61, 0x69, 0x74, 0x00, 0x00, 0x00, 0x00, 0x77, 0x61, 0x69, 0x74, 0x70, 0x69, 0x64, 0x00, 
0x77, 0x72, 0x69, 0x74, 0x65, 0x00, 0x00, 0x00, 0x79, 0x69, 0x65, 0x6c, 0x64, 0x00, 0x00, 0x00, 
0x2e, 0x2f, 0x62, 0x75, 0x73, 0x79, 0x62, 0x6f, 0x78, 0x00, 0x00, 0x00, 0x00, 0x00, 0x00, 0x00, 
0x62, 0x75, 0x73, 0x79, 0x62, 0x6f, 0x78, 0x5f, 0x74, 0x65, 0x73, 0x74, 0x63, 0x6f, 0x64, 0x65, 
0x2e, 0x73, 0x68, 0x00, 0x00, 0x00, 0x00, 0x00, 0x30, 0x31, 0x32, 0x33, 0x34, 0x35, 0x36, 0x37, 
0x38, 0x39, 0x41, 0x42, 0x43, 0x44, 0x45, 0x46, 0x00, 0x00, 0x00, 0x00, 0x00, 0x00, 0x00, 0x00, 
0x28, 0x6e, 0x75, 0x6c, 0x6c, 0x29, 0x00, 0x00, 0xd8, 0x08, 0x00, 0x00, 0x00, 0x00, 0x00, 0x00, 
0x00, 0x00, 0x00, 0x00, 0x00, 0x00, 0x00, 0x00, 0xe0, 0x08, 0x00, 0x00, 0x00, 0x00, 0x00, 0x00, 
0xe8, 0x08, 0x00, 0x00, 0x00, 0x00, 0x00, 0x00, 0xf0, 0x08, 0x00, 0x00, 0x00, 0x00, 0x00, 0x00, 
0xf8, 0x08, 0x00, 0x00, 0x00, 0x00, 0x00, 0x00, 0x00, 0x09, 0x00, 0x00, 0x00, 0x00, 0x00, 0x00, 
0x08, 0x09, 0x00, 0x00, 0x00, 0x00, 0x00, 0x00, 0x10, 0x09, 0x00, 0x00, 0x00, 0x00, 0x00, 0x00, 
0x18, 0x09, 0x00, 0x00, 0x00, 0x00, 0x00, 0x00, 0x20, 0x09, 0x00, 0x00, 0x00, 0x00, 0x00, 0x00, 
0x28, 0x09, 0x00, 0x00, 0x00, 0x00, 0x00, 0x00, 0x30, 0x09, 0x00, 0x00, 0x00, 0x00, 0x00, 0x00, 
0x38, 0x09, 0x00, 0x00, 0x00, 0x00, 0x00, 0x00, 0x48, 0x09, 0x00, 0x00, 0x00, 0x00, 0x00, 0x00, 
0x50, 0x09, 0x00, 0x00, 0x00, 0x00, 0x00, 0x00, 0x58, 0x09, 0x00, 0x00, 0x00, 0x00, 0x00, 0x00, 
0x68, 0x09, 0x00, 0x00, 0x00, 0x00, 0x00, 0x00, 0x70, 0x09, 0x00, 0x00, 0x00, 0x00, 0x00, 0x00, 
0x78, 0x09, 0x00, 0x00, 0x00, 0x00, 0x00, 0x00, 0x80, 0x09, 0x00, 0x00, 0x00, 0x00, 0x00, 0x00, 
0x88, 0x09, 0x00, 0x00, 0x00, 0x00, 0x00, 0x00, 0x90, 0x09, 0x00, 0x00, 0x00, 0x00, 0x00, 0x00, 
0x98, 0x09, 0x00, 0x00, 0x00, 0x00, 0x00, 0x00, 0xa0, 0x09, 0x00, 0x00, 0x00, 0x00, 0x00, 0x00, 
0xa8, 0x09, 0x00, 0x00, 0x00, 0x00, 0x00, 0x00, 0xb0, 0x09, 0x00, 0x00, 0x00, 0x00, 0x00, 0x00, 
0xb8, 0x09, 0x00, 0x00, 0x00, 0x00, 0x00, 0x00, 0xc0, 0x09, 0x00, 0x00, 0x00, 0x00, 0x00, 0x00, 
0xc8, 0x09, 0x00, 0x00, 0x00, 0x00, 0x00, 0x00, 0xd0, 0x09, 0x00, 0x00, 0x00, 0x00, 0x00, 0x00, 
0xd8, 0x09, 0x00, 0x00, 0x00, 0x00, 0x00, 0x00, 0xe0, 0x09, 0x00, 0x00, 0x00, 0x00, 0x00, 0x00, 
0xe8, 0x09, 0x00, 0x00, 0x00, 0x00, 0x00, 0x00, 0xf0, 0x09, 0x00, 0x00, 0x00, 0x00, 0x00, 0x00, 
0xd8, 0x08, 0x00, 0x00, 0x00, 0x00, 0x00, 0x00, 0x00, 0x0a, 0x00, 0x00, 0x00, 0x00, 0x00, 0x00, 
